<?xml version="1.0" encoding="utf-8"?>
<!-- Svg Vector Icons : http://www.onlinewebfonts.com/icon -->
<!DOCTYPE svg PUBLIC "-//W3C//DTD SVG 1.1//EN" "http://www.w3.org/Graphics/SVG/1.1/DTD/svg11.dtd">
<svg version="1.1" xmlns="http://www.w3.org/2000/svg" xmlns:xlink="http://www.w3.org/1999/xlink" x="0px" y="0px" viewBox="0 0 1000 1000" enable-background="new 0 0 1000 1000" xml:space="preserve">
<metadata> Svg Vector Icons : http://www.onlinewebfonts.com/icon </metadata>
<g><path d="M570.4,919.6v-69.4H990v69.4H570.4z M570.4,639.9H990v70.4H570.4V639.9z M570.4,289.7H990v70.4H570.4V289.7z M570.4,80.4H990v69.4H570.4V80.4z M394.9,990H44.7C25.9,990,10,974.1,10,955.3V605.1c0-19.8,15.9-35.7,34.7-35.7h350.1c19.8,0,34.7,15.9,34.7,35.7v350.1C429.6,974.1,414.7,990,394.9,990L394.9,990z M360.1,639.9H80.4v279.7h279.7V639.9z M394.9,429.6H44.7c-18.8,0-34.7-14.9-34.7-34.7V44.7C10,25.9,25.9,10,44.7,10h350.1c19.8,0,34.7,15.9,34.7,34.7v350.1C429.6,414.7,414.7,429.6,394.9,429.6L394.9,429.6z M360.1,80.4H80.4v279.7h279.7V80.4z" fill="#ffffff"/></g>
</svg>