<?xml version="1.0" encoding="utf-8"?>
<!-- Svg Vector Icons : http://www.onlinewebfonts.com/icon -->
<!DOCTYPE svg PUBLIC "-//W3C//DTD SVG 1.1//EN" "http://www.w3.org/Graphics/SVG/1.1/DTD/svg11.dtd">
<svg version="1.1" xmlns="http://www.w3.org/2000/svg" xmlns:xlink="http://www.w3.org/1999/xlink" x="0px" y="0px" viewBox="0 0 1000 1000" enable-background="new 0 0 1000 1000" xml:space="preserve">
<metadata> Svg Vector Icons : http://www.onlinewebfonts.com/icon </metadata>
<g><g transform="translate(0.000000,512.000000) scale(0.100000,-0.100000)"><path d="M4145.7,4989.5c-155.3-49.9-283.8-164.9-354.7-316.4c-53.7-111.2-55.6-124.6-55.6-416.1v-303H2431.4H1127.5V2880.2V1806.4h1302h1303.9v-3058.5v-3060.4l51.8-115.1c209-464.1,853.3-471.7,1096.8-11.5l51.8,99.7l5.7,3073.8l3.8,3071.9h1252.2h1254.1l711.4,533.1c391.2,291.5,711.4,535,711.4,540.8c0,5.7-320.2,249.3-711.4,542.7L7449.7,3954H6197.5H4947.3l-7.7,312.6c-5.7,295.3-9.6,316.4-59.4,410.4C4734.4,4955,4433.4,5083.5,4145.7,4989.5z M4477.5,4688.4c36.4-17.3,90.1-65.2,117-107.4c47.9-72.9,51.8-92.1,59.4-352.8l5.8-274.2h-320.2h-318.3l5.8,285.7c5.7,255,9.6,293.4,46,341.3C4172.6,4715.3,4331.7,4757.5,4477.5,4688.4z M7867.7,3269.5c278.1-209,506.3-383.5,506.3-389.3c0-5.8-228.2-180.2-506.3-387.4l-508.1-379.7H4387.3H1415.1v767v767h2972.2h2972.2L7867.7,3269.5z M4650-1229.1l-3.8-3035.5l-51.8-78.6c-124.6-187.9-381.6-187.9-521.6,0l-40.3,53.7l-5.7,3048.9l-3.8,3047h314.5h316.4L4650-1229.1z"/></g></g>
</svg>