<?xml version="1.0" encoding="utf-8"?>
<!-- Svg Vector Icons : http://www.onlinewebfonts.com/icon -->
<!DOCTYPE svg PUBLIC "-//W3C//DTD SVG 1.1//EN" "http://www.w3.org/Graphics/SVG/1.1/DTD/svg11.dtd">
<svg version="1.1" xmlns="http://www.w3.org/2000/svg" xmlns:xlink="http://www.w3.org/1999/xlink" x="0px" y="0px" viewBox="0 0 1000 1000" enable-background="new 0 0 1000 1000" xml:space="preserve">
<metadata> Svg Vector Icons : http://www.onlinewebfonts.com/icon </metadata>
<g><path d="M928.2,218.8c-2.9-48.1-42.5-86.2-91.3-86.2H745v-30.7c0-50.7-41.2-91.9-91.9-91.9H346.9c-50.7,0-91.9,41.1-91.9,91.9v30.7h-91.9c-48.8,0-88.4,38.2-91.3,86.2h-0.6v66.9c0,33.8,27.4,61.3,61.3,61.3l0,0v520.6c0,67.7,54.8,122.5,122.5,122.5h490c67.7,0,122.5-54.8,122.5-122.5V346.9c33.8,0,61.3-27.4,61.3-61.3v-66.8L928.2,218.8L928.2,218.8z M316.3,101.9c0-16.9,13.7-30.6,30.6-30.6h306.2c16.9,0,30.6,13.7,30.6,30.6v30.6H316.3L316.3,101.9L316.3,101.9z M806.3,867.5c0,33.8-27.5,61.2-61.3,61.2H255c-33.8,0-61.2-27.5-61.2-61.2V346.9h612.5V867.5z M867.5,255v30.6h-735v-61.2c0-16.9,13.7-30.6,30.6-30.6h673.8c16.9,0,30.6,13.7,30.6,30.6L867.5,255L867.5,255z M285.7,867.7h61.3c16.9,0,30.6-13.7,30.6-30.6V438.9c0-16.9-13.7-30.6-30.6-30.6h-61.3c-16.9,0-30.6,13.7-30.6,30.6V837C255,854,268.7,867.7,285.7,867.7z M285.7,438.9h61.3V837h-61.3V438.9z M469.4,867.7h61.3c16.9,0,30.6-13.7,30.6-30.6V438.9c0-16.9-13.7-30.6-30.6-30.6h-61.3c-16.9,0-30.6,13.7-30.6,30.6V837C438.8,854,452.5,867.7,469.4,867.7L469.4,867.7z M469.4,438.9h61.3V837h-61.3V438.9L469.4,438.9z M653.2,867.7h61.3c16.9,0,30.6-13.7,30.6-30.6V438.9c0-16.9-13.7-30.6-30.6-30.6h-61.3c-16.9,0-30.6,13.7-30.6,30.6V837C622.5,854,636.2,867.7,653.2,867.7z M653.2,438.9h61.3V837h-61.3V438.9z" fill="#ff0000"/></g>
</svg>